simulation/modelsim/msim_transcript
# Reading D:/altera/13.1/modelsim_ase/tcl/vsim/pref.tcl 
# do termProject_run_msim_rtl_verilog.do 
# if {[file exists rtl_work]} {
# 	vdel -lib rtl_work -all
# }
# vlib rtl_work
# vmap work rtl_work
# Copying D:\altera\13.1\modelsim_ase\win32aloem/../modelsim.ini to modelsim.ini
# Modifying modelsim.ini
# ** Warning: Copied D:\altera\13.1\modelsim_ase\win32aloem/../modelsim.ini to modelsim.ini.
#          Updated modelsim.ini.
# 
# vlog -vlog01compat -work work +incdir+D:/altera/13.1/Projects/TermProject {D:/altera/13.1/Projects/TermProject/input_handler.v}
# Model Technology ModelSim ALTERA vlog 10.1d Compiler 2012.11 Nov  2 2012
# -- Compiling module input_handler
# 
# Top level modules:
# 	input_handler
# 
vlog -reportprogress 300 -work work D:/altera/13.1/Projects/TermProject/input_handler.v
# Model Technology ModelSim ALTERA vlog 10.1d Compiler 2012.11 Nov  2 2012
# -- Compiling module input_handler
# 
# Top level modules:
# 	input_handler
vlog -reportprogress 300 -work work D:/altera/13.1/Projects/TermProject/input_handler_tb.v
# Model Technology ModelSim ALTERA vlog 10.1d Compiler 2012.11 Nov  2 2012
# -- Compiling module input_handler_tb
# 
# Top level modules:
# 	input_handler_tb
vsim +altera -do termProject_run_msim_rtl_verilog.do -l msim_transcript -gui work.input_handler_tb
# vsim +altera -do termProject_run_msim_rtl_verilog.do -l msim_transcript -gui work.input_handler_tb 
# Loading work.input_handler_tb
# Loading work.input_handler
# do termProject_run_msim_rtl_verilog.do 
# if {[file exists rtl_work]} {
# 	vdel -lib rtl_work -all
# }
# vlib rtl_work
# vmap work rtl_work
# Modifying modelsim.ini
# 
# vlog -vlog01compat -work work +incdir+D:/altera/13.1/Projects/TermProject {D:/altera/13.1/Projects/TermProject/input_handler.v}
# Model Technology ModelSim ALTERA vlog 10.1d Compiler 2012.11 Nov  2 2012
# -- Compiling module input_handler
# 
# Top level modules:
# 	input_handler
# 
add wave -position end  sim:/input_handler_tb/y_output
add wave -position end  sim:/input_handler_tb/y_counter
add wave -position end  sim:/input_handler_tb/x_output
add wave -position end  sim:/input_handler_tb/x_counter
add wave -position end  sim:/input_handler_tb/valid_coordinate
add wave -position end  sim:/input_handler_tb/state
add wave -position end  sim:/input_handler_tb/reset
add wave -position end  sim:/input_handler_tb/logic_1_button
add wave -position end  sim:/input_handler_tb/logic_0_button
add wave -position end  sim:/input_handler_tb/clk
add wave -position end  sim:/input_handler_tb/activity_button
run -all
# At time                    0ns, x_output = xxxx, x_counter=xxxx, y_output = xxxx, y_counter=xxxx, valid_coordinate = x, state = xx
# At time                   10ns, x_output = xxxx, x_counter=xxxx, y_output = xxxx, y_counter=xxxx, valid_coordinate = 0, state = xx
# At time                   20ns, x_output = 0000, x_counter=0000, y_output = 0000, y_counter=0000, valid_coordinate = 0, state = 00
# At time                   90ns, x_output = 0000, x_counter=0000, y_output = 0000, y_counter=0000, valid_coordinate = 0, state = 01
# At time                  110ns, x_output = 1000, x_counter=0001, y_output = 0000, y_counter=0000, valid_coordinate = 0, state = 01
# At time                  130ns, x_output = 1000, x_counter=0001, y_output = 0000, y_counter=0000, valid_coordinate = 0, state = 00
# At time                  170ns, x_output = 1000, x_counter=0001, y_output = 0000, y_counter=0000, valid_coordinate = 0, state = 01
# At time                  190ns, x_output = 0100, x_counter=0010, y_output = 0000, y_counter=0000, valid_coordinate = 0, state = 01
# At time                  210ns, x_output = 0100, x_counter=0010, y_output = 0000, y_counter=0000, valid_coordinate = 0, state = 00
# At time                  250ns, x_output = 0100, x_counter=0010, y_output = 0000, y_counter=0000, valid_coordinate = 0, state = 01
# At time                  270ns, x_output = 0010, x_counter=0011, y_output = 0000, y_counter=0000, valid_coordinate = 0, state = 01
# At time                  290ns, x_output = 0010, x_counter=0011, y_output = 0000, y_counter=0000, valid_coordinate = 0, state = 00
# At time                  330ns, x_output = 0010, x_counter=0011, y_output = 0000, y_counter=0000, valid_coordinate = 0, state = 01
# At time                  350ns, x_output = 0001, x_counter=0100, y_output = 0000, y_counter=0000, valid_coordinate = 0, state = 01
# At time                  370ns, x_output = 0001, x_counter=0100, y_output = 0000, y_counter=0000, valid_coordinate = 0, state = 10
# At time                  410ns, x_output = 0001, x_counter=0100, y_output = 1000, y_counter=0001, valid_coordinate = 0, state = 10
# At time                  430ns, x_output = 0001, x_counter=0100, y_output = 1100, y_counter=0010, valid_coordinate = 0, state = 10
# At time                  490ns, x_output = 0001, x_counter=0100, y_output = 1110, y_counter=0011, valid_coordinate = 0, state = 10
# At time                  510ns, x_output = 0001, x_counter=0100, y_output = 1111, y_counter=0100, valid_coordinate = 0, state = 10
# At time                  530ns, x_output = 0001, x_counter=0100, y_output = 1111, y_counter=0100, valid_coordinate = 0, state = 11
# At time                  730ns, x_output = 0001, x_counter=0100, y_output = 1111, y_counter=0100, valid_coordinate = 1, state = 00
# At time                  750ns, x_output = 0001, x_counter=0100, y_output = 1111, y_counter=0100, valid_coordinate = 0, state = 00
vlog -reportprogress 300 -work work D:/altera/13.1/Projects/TermProject/input_handler.v
# Model Technology ModelSim ALTERA vlog 10.1d Compiler 2012.11 Nov  2 2012
# -- Compiling module input_handler
# 
# Top level modules:
# 	input_handler
vlog -reportprogress 300 -work work D:/altera/13.1/Projects/TermProject/input_handler_tb.v
# Model Technology ModelSim ALTERA vlog 10.1d Compiler 2012.11 Nov  2 2012
# -- Compiling module input_handler_tb
# 
# Top level modules:
# 	input_handler_tb
vlog -reportprogress 300 -work work D:/altera/13.1/Projects/TermProject/input_handler_tb.v
# Model Technology ModelSim ALTERA vlog 10.1d Compiler 2012.11 Nov  2 2012
# -- Compiling module input_handler_tb
# 
# Top level modules:
# 	input_handler_tb
restart
# Loading work.input_handler_tb
# Loading work.input_handler
run -all
# At time                    0ns, x_output = xxxx, x_counter=xxxx, y_output = xxxx, y_counter=xxxx, valid_coordinate = x, state = xx
# At time                   10ns, x_output = xxxx, x_counter=xxxx, y_output = xxxx, y_counter=xxxx, valid_coordinate = 0, state = xx
# At time                   20ns, x_output = 0000, x_counter=0000, y_output = 0000, y_counter=0000, valid_coordinate = 0, state = 00
# At time                   90ns, x_output = 0000, x_counter=0000, y_output = 0000, y_counter=0000, valid_coordinate = 0, state = 01
# At time                  110ns, x_output = 1000, x_counter=0001, y_output = 0000, y_counter=0000, valid_coordinate = 0, state = 01
# At time                  130ns, x_output = 1000, x_counter=0001, y_output = 0000, y_counter=0000, valid_coordinate = 0, state = 00
# At time                  170ns, x_output = 1000, x_counter=0001, y_output = 0000, y_counter=0000, valid_coordinate = 0, state = 01
# At time                  190ns, x_output = 0100, x_counter=0010, y_output = 0000, y_counter=0000, valid_coordinate = 0, state = 01
# At time                  210ns, x_output = 0100, x_counter=0010, y_output = 0000, y_counter=0000, valid_coordinate = 0, state = 00
# At time                  250ns, x_output = 0100, x_counter=0010, y_output = 0000, y_counter=0000, valid_coordinate = 0, state = 01
# At time                  270ns, x_output = 0010, x_counter=0011, y_output = 0000, y_counter=0000, valid_coordinate = 0, state = 01
# At time                  290ns, x_output = 0010, x_counter=0011, y_output = 0000, y_counter=0000, valid_coordinate = 0, state = 00
# At time                  330ns, x_output = 0010, x_counter=0011, y_output = 0000, y_counter=0000, valid_coordinate = 0, state = 01
# At time                  350ns, x_output = 0001, x_counter=0100, y_output = 0000, y_counter=0000, valid_coordinate = 0, state = 01
# At time                  370ns, x_output = 0001, x_counter=0100, y_output = 0000, y_counter=0000, valid_coordinate = 0, state = 10
# At time                  410ns, x_output = 0001, x_counter=0100, y_output = 0000, y_counter=0001, valid_coordinate = 0, state = 10
# At time                  430ns, x_output = 0001, x_counter=0100, y_output = 0000, y_counter=0010, valid_coordinate = 0, state = 10
# At time                  490ns, x_output = 0001, x_counter=0100, y_output = 0000, y_counter=0011, valid_coordinate = 0, state = 10
# At time                  510ns, x_output = 0001, x_counter=0100, y_output = 0000, y_counter=0100, valid_coordinate = 0, state = 10
# At time                  530ns, x_output = 0001, x_counter=0100, y_output = 0000, y_counter=0100, valid_coordinate = 0, state = 11
# At time                  730ns, x_output = 0001, x_counter=0100, y_output = 0000, y_counter=0100, valid_coordinate = 1, state = 00
# At time                  750ns, x_output = 0001, x_counter=0100, y_output = 0000, y_counter=0100, valid_coordinate = 0, state = 00
vlog -reportprogress 300 -work work D:/altera/13.1/Projects/TermProject/input_handler_tb.v
# Model Technology ModelSim ALTERA vlog 10.1d Compiler 2012.11 Nov  2 2012
# -- Compiling module input_handler_tb
# 
# Top level modules:
# 	input_handler_tb
restart
# Loading work.input_handler_tb
run -all
# At time                    0ns, x_output = xxxx, x_counter=xxxx, y_output = xxxx, y_counter=xxxx, valid_coordinate = x, state = xx
# At time                   10ns, x_output = xxxx, x_counter=xxxx, y_output = xxxx, y_counter=xxxx, valid_coordinate = 0, state = xx
# At time                   20ns, x_output = 0000, x_counter=0000, y_output = 0000, y_counter=0000, valid_coordinate = 0, state = 00
# At time                   90ns, x_output = 0000, x_counter=0000, y_output = 0000, y_counter=0000, valid_coordinate = 0, state = 01
# At time                  110ns, x_output = 1000, x_counter=0001, y_output = 0000, y_counter=0000, valid_coordinate = 0, state = 01
# At time                  130ns, x_output = 1000, x_counter=0001, y_output = 0000, y_counter=0000, valid_coordinate = 0, state = 00
# At time                  170ns, x_output = 1000, x_counter=0001, y_output = 0000, y_counter=0000, valid_coordinate = 0, state = 01
# At time                  190ns, x_output = 0100, x_counter=0010, y_output = 0000, y_counter=0000, valid_coordinate = 0, state = 01
# At time                  210ns, x_output = 0100, x_counter=0010, y_output = 0000, y_counter=0000, valid_coordinate = 0, state = 00
# At time                  250ns, x_output = 0100, x_counter=0010, y_output = 0000, y_counter=0000, valid_coordinate = 0, state = 01
# At time                  270ns, x_output = 0010, x_counter=0011, y_output = 0000, y_counter=0000, valid_coordinate = 0, state = 01
# At time                  290ns, x_output = 0010, x_counter=0011, y_output = 0000, y_counter=0000, valid_coordinate = 0, state = 00
# At time                  330ns, x_output = 0010, x_counter=0011, y_output = 0000, y_counter=0000, valid_coordinate = 0, state = 01
# At time                  350ns, x_output = 0001, x_counter=0100, y_output = 0000, y_counter=0000, valid_coordinate = 0, state = 01
# At time                  370ns, x_output = 0001, x_counter=0100, y_output = 0000, y_counter=0000, valid_coordinate = 0, state = 10
# At time                  410ns, x_output = 0001, x_counter=0100, y_output = 0000, y_counter=0001, valid_coordinate = 0, state = 10
# At time                  430ns, x_output = 0001, x_counter=0100, y_output = 0000, y_counter=0010, valid_coordinate = 0, state = 10
# At time                  490ns, x_output = 0001, x_counter=0100, y_output = 0000, y_counter=0011, valid_coordinate = 0, state = 10
# At time                  510ns, x_output = 0001, x_counter=0100, y_output = 0000, y_counter=0100, valid_coordinate = 0, state = 10
# At time                  530ns, x_output = 0001, x_counter=0100, y_output = 0000, y_counter=0100, valid_coordinate = 0, state = 11
# At time                  730ns, x_output = 0001, x_counter=0100, y_output = 0000, y_counter=0100, valid_coordinate = 1, state = 00
# At time                  750ns, x_output = 0001, x_counter=0100, y_output = 0000, y_counter=0100, valid_coordinate = 0, state = 00
vlog -reportprogress 300 -work work D:/altera/13.1/Projects/TermProject/input_handler_tb.v
# Model Technology ModelSim ALTERA vlog 10.1d Compiler 2012.11 Nov  2 2012
# -- Compiling module input_handler_tb
# 
# Top level modules:
# 	input_handler_tb
restart
# Loading work.input_handler_tb
run -all
# At time                    0ns, x_output = xxxx, x_counter=xxxx, y_output = xxxx, y_counter=xxxx, valid_coordinate = x, state = xx
# At time                   10ns, x_output = xxxx, x_counter=xxxx, y_output = xxxx, y_counter=xxxx, valid_coordinate = 0, state = xx
# At time                   20ns, x_output = 0000, x_counter=0000, y_output = 0000, y_counter=0000, valid_coordinate = 0, state = 00
# At time                   90ns, x_output = 0000, x_counter=0000, y_output = 0000, y_counter=0000, valid_coordinate = 0, state = 01
# At time                  110ns, x_output = 1000, x_counter=0001, y_output = 0000, y_counter=0000, valid_coordinate = 0, state = 01
# At time                  130ns, x_output = 1000, x_counter=0001, y_output = 0000, y_counter=0000, valid_coordinate = 0, state = 00
# At time                  170ns, x_output = 1000, x_counter=0001, y_output = 0000, y_counter=0000, valid_coordinate = 0, state = 01
# At time                  190ns, x_output = 0100, x_counter=0010, y_output = 0000, y_counter=0000, valid_coordinate = 0, state = 01
# At time                  210ns, x_output = 0100, x_counter=0010, y_output = 0000, y_counter=0000, valid_coordinate = 0, state = 00
# At time                  250ns, x_output = 0100, x_counter=0010, y_output = 0000, y_counter=0000, valid_coordinate = 0, state = 01
# At time                  270ns, x_output = 0010, x_counter=0011, y_output = 0000, y_counter=0000, valid_coordinate = 0, state = 01
# At time                  290ns, x_output = 0010, x_counter=0011, y_output = 0000, y_counter=0000, valid_coordinate = 0, state = 00
# At time                  330ns, x_output = 0010, x_counter=0011, y_output = 0000, y_counter=0000, valid_coordinate = 0, state = 01
# At time                  350ns, x_output = 0001, x_counter=0100, y_output = 0000, y_counter=0000, valid_coordinate = 0, state = 01
# At time                  370ns, x_output = 0001, x_counter=0100, y_output = 0000, y_counter=0000, valid_coordinate = 0, state = 10
# At time                  410ns, x_output = 0001, x_counter=0100, y_output = 0000, y_counter=0001, valid_coordinate = 0, state = 10
# At time                  430ns, x_output = 0001, x_counter=0100, y_output = 0000, y_counter=0010, valid_coordinate = 0, state = 10
# At time                  490ns, x_output = 0001, x_counter=0100, y_output = 1000, y_counter=0011, valid_coordinate = 0, state = 10
# At time                  510ns, x_output = 0001, x_counter=0100, y_output = 1100, y_counter=0100, valid_coordinate = 0, state = 10
# At time                  530ns, x_output = 0001, x_counter=0100, y_output = 1100, y_counter=0100, valid_coordinate = 0, state = 11
# At time                  730ns, x_output = 0001, x_counter=0100, y_output = 1100, y_counter=0100, valid_coordinate = 1, state = 00
# At time                  750ns, x_output = 0001, x_counter=0100, y_output = 1100, y_counter=0100, valid_coordinate = 0, state = 00
vlog -reportprogress 300 -work work D:/altera/13.1/Projects/TermProject/input_handler.v
# Model Technology ModelSim ALTERA vlog 10.1d Compiler 2012.11 Nov  2 2012
# -- Compiling module input_handler
# 
# Top level modules:
# 	input_handler
restart
# Loading work.input_handler
run -all
# At time                    0ns, x_output = xxxx, x_counter=xxxx, y_output = xxxx, y_counter=xxxx, valid_coordinate = x, state = xx
# At time                   10ns, x_output = xxxx, x_counter=xxxx, y_output = xxxx, y_counter=xxxx, valid_coordinate = 0, state = xx
# At time                   20ns, x_output = 0000, x_counter=0000, y_output = 0000, y_counter=0000, valid_coordinate = 0, state = 00
# At time                   90ns, x_output = 0000, x_counter=0000, y_output = 0000, y_counter=0000, valid_coordinate = 0, state = 01
# At time                  110ns, x_output = 1000, x_counter=0001, y_output = 0000, y_counter=0000, valid_coordinate = 0, state = 01
# At time                  130ns, x_output = 1000, x_counter=0001, y_output = 0000, y_counter=0000, valid_coordinate = 0, state = 00
# At time                  170ns, x_output = 1000, x_counter=0001, y_output = 0000, y_counter=0000, valid_coordinate = 0, state = 01
# At time                  190ns, x_output = 0100, x_counter=0010, y_output = 0000, y_counter=0000, valid_coordinate = 0, state = 01
# At time                  210ns, x_output = 0100, x_counter=0010, y_output = 0000, y_counter=0000, valid_coordinate = 0, state = 00
# At time                  250ns, x_output = 0100, x_counter=0010, y_output = 0000, y_counter=0000, valid_coordinate = 0, state = 01
# At time                  270ns, x_output = 0010, x_counter=0011, y_output = 0000, y_counter=0000, valid_coordinate = 0, state = 01
# At time                  290ns, x_output = 0010, x_counter=0011, y_output = 0000, y_counter=0000, valid_coordinate = 0, state = 00
# At time                  330ns, x_output = 0010, x_counter=0011, y_output = 0000, y_counter=0000, valid_coordinate = 0, state = 01
# At time                  350ns, x_output = 0001, x_counter=0100, y_output = 0000, y_counter=0000, valid_coordinate = 0, state = 01
# At time                  370ns, x_output = 0001, x_counter=0100, y_output = 0000, y_counter=0000, valid_coordinate = 0, state = 10
# At time                  410ns, x_output = 0001, x_counter=0100, y_output = 0000, y_counter=0001, valid_coordinate = 0, state = 10
# At time                  430ns, x_output = 0001, x_counter=0100, y_output = 0000, y_counter=0010, valid_coordinate = 0, state = 10
# At time                  490ns, x_output = 0001, x_counter=0100, y_output = 1000, y_counter=0011, valid_coordinate = 0, state = 10
# At time                  510ns, x_output = 0001, x_counter=0100, y_output = 1100, y_counter=0100, valid_coordinate = 0, state = 10
# At time                  530ns, x_output = 0001, x_counter=0100, y_output = 1100, y_counter=0100, valid_coordinate = 0, state = 11
# At time                  730ns, x_output = 0001, x_counter=0100, y_output = 1100, y_counter=0100, valid_coordinate = 1, state = 00
# At time                  750ns, x_output = 0001, x_counter=0100, y_output = 1100, y_counter=0100, valid_coordinate = 0, state = 00
vlog -reportprogress 300 -work work D:/altera/13.1/Projects/TermProject/input_handler.v
# Model Technology ModelSim ALTERA vlog 10.1d Compiler 2012.11 Nov  2 2012
# -- Compiling module input_handler
# 
# Top level modules:
# 	input_handler
vlog -reportprogress 300 -work work D:/altera/13.1/Projects/TermProject/input_handler_tb.v
# Model Technology ModelSim ALTERA vlog 10.1d Compiler 2012.11 Nov  2 2012
# -- Compiling module input_handler_tb
# 
# Top level modules:
# 	input_handler_tb
restart
# Loading work.input_handler_tb
# Loading work.input_handler
run -all
# At time                    0ns, x_output = xxxx, x_counter=xxxx, y_output = xxxx, y_counter=xxxx, valid_coordinate = x, state = xx
# At time                   10ns, x_output = xxxx, x_counter=xxxx, y_output = xxxx, y_counter=xxxx, valid_coordinate = 0, state = xx
# At time                   20ns, x_output = 0000, x_counter=0000, y_output = 0000, y_counter=0000, valid_coordinate = 0, state = 00
# At time                   90ns, x_output = 1000, x_counter=0001, y_output = 0000, y_counter=0000, valid_coordinate = 0, state = 01
# At time                  110ns, x_output = 1100, x_counter=0010, y_output = 0000, y_counter=0000, valid_coordinate = 0, state = 01
# At time                  130ns, x_output = 1100, x_counter=0010, y_output = 0000, y_counter=0000, valid_coordinate = 0, state = 00
# At time                  170ns, x_output = 0110, x_counter=0011, y_output = 0000, y_counter=0000, valid_coordinate = 0, state = 01
# At time                  190ns, x_output = 0011, x_counter=0100, y_output = 0000, y_counter=0000, valid_coordinate = 0, state = 01
# At time                  210ns, x_output = 0011, x_counter=0100, y_output = 0000, y_counter=0000, valid_coordinate = 0, state = 10
# At time                  250ns, x_output = 0011, x_counter=0100, y_output = 0000, y_counter=0001, valid_coordinate = 0, state = 10
# At time                  270ns, x_output = 0011, x_counter=0100, y_output = 0000, y_counter=0010, valid_coordinate = 0, state = 10
# At time                  330ns, x_output = 0011, x_counter=0100, y_output = 0000, y_counter=0011, valid_coordinate = 0, state = 10
# At time                  350ns, x_output = 0011, x_counter=0100, y_output = 0000, y_counter=0100, valid_coordinate = 0, state = 10
# At time                  370ns, x_output = 0011, x_counter=0100, y_output = 0000, y_counter=0100, valid_coordinate = 0, state = 11
# At time                  730ns, x_output = 0011, x_counter=0100, y_output = 0000, y_counter=0100, valid_coordinate = 0, state = 00
vlog -reportprogress 300 -work work D:/altera/13.1/Projects/TermProject/input_handler.v
# Model Technology ModelSim ALTERA vlog 10.1d Compiler 2012.11 Nov  2 2012
# -- Compiling module input_handler
# 
# Top level modules:
# 	input_handler
restart
# Loading work.input_handler
run -all
# At time                    0ns, x_output = xxxx, x_counter=xxxx, y_output = xxxx, y_counter=xxxx, valid_coordinate = x, state = xx
# At time                   10ns, x_output = xxxx, x_counter=xxxx, y_output = xxxx, y_counter=xxxx, valid_coordinate = 0, state = xx
# At time                   20ns, x_output = 0000, x_counter=0000, y_output = 0000, y_counter=0000, valid_coordinate = 0, state = 00
# At time                   90ns, x_output = 1000, x_counter=0001, y_output = 0000, y_counter=0000, valid_coordinate = 0, state = 01
# At time                  110ns, x_output = 1100, x_counter=0010, y_output = 0000, y_counter=0000, valid_coordinate = 0, state = 01
# At time                  130ns, x_output = 1100, x_counter=0010, y_output = 0000, y_counter=0000, valid_coordinate = 0, state = 00
# At time                  170ns, x_output = 0110, x_counter=0011, y_output = 0000, y_counter=0000, valid_coordinate = 0, state = 01
# At time                  190ns, x_output = 0011, x_counter=0100, y_output = 0000, y_counter=0000, valid_coordinate = 0, state = 01
# At time                  210ns, x_output = 0011, x_counter=0100, y_output = 0000, y_counter=0000, valid_coordinate = 0, state = 10
# At time                  250ns, x_output = 0011, x_counter=0100, y_output = 0000, y_counter=0001, valid_coordinate = 0, state = 10
# At time                  270ns, x_output = 0011, x_counter=0100, y_output = 0000, y_counter=0010, valid_coordinate = 0, state = 10
# At time                  330ns, x_output = 0011, x_counter=0100, y_output = 0000, y_counter=0011, valid_coordinate = 0, state = 10
# At time                  350ns, x_output = 0011, x_counter=0100, y_output = 0000, y_counter=0100, valid_coordinate = 0, state = 10
# At time                  370ns, x_output = 0011, x_counter=0100, y_output = 0000, y_counter=0100, valid_coordinate = 0, state = 11
# At time                  730ns, x_output = 0011, x_counter=0100, y_output = 0000, y_counter=0100, valid_coordinate = 0, state = 00
vlog -reportprogress 300 -work work D:/altera/13.1/Projects/TermProject/input_handler.v
# Model Technology ModelSim ALTERA vlog 10.1d Compiler 2012.11 Nov  2 2012
# -- Compiling module input_handler
# 
# Top level modules:
# 	input_handler
restart
# Loading work.input_handler
run -all
# At time                    0ns, x_output = xxxx, x_counter=xxxx, y_output = xxxx, y_counter=xxxx, valid_coordinate = x, state = xx
# At time                   10ns, x_output = xxxx, x_counter=xxxx, y_output = xxxx, y_counter=xxxx, valid_coordinate = 0, state = xx
# At time                   20ns, x_output = 0000, x_counter=0000, y_output = 0000, y_counter=0000, valid_coordinate = 0, state = 00
# At time                  110ns, x_output = 0000, x_counter=0000, y_output = 0000, y_counter=0000, valid_coordinate = 0, state = 01
# At time                  150ns, x_output = 0000, x_counter=0000, y_output = 0000, y_counter=0000, valid_coordinate = 0, state = 00
# At time                  190ns, x_output = 0000, x_counter=0000, y_output = 0000, y_counter=0000, valid_coordinate = 0, state = 01
# At time                  230ns, x_output = 0000, x_counter=0000, y_output = 0000, y_counter=0000, valid_coordinate = 0, state = 00
# At time                  270ns, x_output = 0000, x_counter=0000, y_output = 0000, y_counter=0000, valid_coordinate = 0, state = 01
# At time                  310ns, x_output = 0000, x_counter=0000, y_output = 0000, y_counter=0000, valid_coordinate = 0, state = 00
# At time                  350ns, x_output = 0000, x_counter=0000, y_output = 0000, y_counter=0000, valid_coordinate = 0, state = 01
# At time                  390ns, x_output = 0000, x_counter=0000, y_output = 0000, y_counter=0000, valid_coordinate = 0, state = 00
# At time                  430ns, x_output = 0000, x_counter=0000, y_output = 0000, y_counter=0000, valid_coordinate = 0, state = 01
# At time                  470ns, x_output = 0000, x_counter=0000, y_output = 0000, y_counter=0000, valid_coordinate = 0, state = 00
# At time                  510ns, x_output = 0000, x_counter=0000, y_output = 0000, y_counter=0000, valid_coordinate = 0, state = 01
# At time                  550ns, x_output = 0000, x_counter=0000, y_output = 0000, y_counter=0000, valid_coordinate = 0, state = 00
# At time                  590ns, x_output = 0000, x_counter=0000, y_output = 0000, y_counter=0000, valid_coordinate = 0, state = 01
# At time                  630ns, x_output = 0000, x_counter=0000, y_output = 0000, y_counter=0000, valid_coordinate = 0, state = 00
# At time                  670ns, x_output = 0000, x_counter=0000, y_output = 0000, y_counter=0000, valid_coordinate = 0, state = 01
# At time                  710ns, x_output = 0000, x_counter=0000, y_output = 0000, y_counter=0000, valid_coordinate = 0, state = 00
vlog -reportprogress 300 -work work D:/altera/13.1/Projects/TermProject/input_handler.v
# Model Technology ModelSim ALTERA vlog 10.1d Compiler 2012.11 Nov  2 2012
# -- Compiling module input_handler
# 
# Top level modules:
# 	input_handler
restart
# Loading work.input_handler
run -all
# At time                    0ns, x_output = xxxx, x_counter=xxxx, y_output = xxxx, y_counter=xxxx, valid_coordinate = x, state = xx
# At time                   10ns, x_output = xxxx, x_counter=xxxx, y_output = xxxx, y_counter=xxxx, valid_coordinate = 0, state = xx
# At time                   20ns, x_output = 0000, x_counter=0000, y_output = 0000, y_counter=0000, valid_coordinate = 0, state = 00
# At time                   90ns, x_output = 0000, x_counter=0000, y_output = 0000, y_counter=0000, valid_coordinate = 0, state = 01
# At time                  110ns, x_output = 1000, x_counter=0001, y_output = 0000, y_counter=0000, valid_coordinate = 0, state = 01
# At time                  130ns, x_output = 1000, x_counter=0001, y_output = 0000, y_counter=0000, valid_coordinate = 0, state = 00
# At time                  170ns, x_output = 1000, x_counter=0001, y_output = 0000, y_counter=0000, valid_coordinate = 0, state = 01
# At time                  190ns, x_output = 0100, x_counter=0010, y_output = 0000, y_counter=0000, valid_coordinate = 0, state = 01
# At time                  210ns, x_output = 0100, x_counter=0010, y_output = 0000, y_counter=0000, valid_coordinate = 0, state = 00
# At time                  250ns, x_output = 0100, x_counter=0010, y_output = 0000, y_counter=0000, valid_coordinate = 0, state = 01
# At time                  270ns, x_output = 0010, x_counter=0011, y_output = 0000, y_counter=0000, valid_coordinate = 0, state = 01
# At time                  290ns, x_output = 0010, x_counter=0011, y_output = 0000, y_counter=0000, valid_coordinate = 0, state = 00
# At time                  330ns, x_output = 0010, x_counter=0011, y_output = 0000, y_counter=0000, valid_coordinate = 0, state = 01
# At time                  350ns, x_output = 0001, x_counter=0100, y_output = 0000, y_counter=0000, valid_coordinate = 0, state = 01
# At time                  370ns, x_output = 0001, x_counter=0100, y_output = 0000, y_counter=0000, valid_coordinate = 0, state = 10
# At time                  410ns, x_output = 0001, x_counter=0100, y_output = 0000, y_counter=0001, valid_coordinate = 0, state = 10
# At time                  430ns, x_output = 0001, x_counter=0100, y_output = 0000, y_counter=0010, valid_coordinate = 0, state = 10
# At time                  490ns, x_output = 0001, x_counter=0100, y_output = 1000, y_counter=0011, valid_coordinate = 0, state = 10
# At time                  510ns, x_output = 0001, x_counter=0100, y_output = 1100, y_counter=0100, valid_coordinate = 0, state = 10
# At time                  530ns, x_output = 0001, x_counter=0100, y_output = 1100, y_counter=0100, valid_coordinate = 0, state = 11
# At time                  730ns, x_output = 0001, x_counter=0100, y_output = 1100, y_counter=0100, valid_coordinate = 1, state = 00
# At time                  750ns, x_output = 0001, x_counter=0100, y_output = 1100, y_counter=0100, valid_coordinate = 0, state = 00
vlog -reportprogress 300 -work work D:/altera/13.1/Projects/TermProject/input_handler.v
# Model Technology ModelSim ALTERA vlog 10.1d Compiler 2012.11 Nov  2 2012
# -- Compiling module input_handler
# 
# Top level modules:
# 	input_handler
restart
# Loading work.input_handler
run -all
# At time                    0ns, x_output = xxxx, x_counter=xxxx, y_output = xxxx, y_counter=xxxx, valid_coordinate = x, state = xx
# At time                   10ns, x_output = xxxx, x_counter=xxxx, y_output = xxxx, y_counter=xxxx, valid_coordinate = 0, state = xx
# At time                   20ns, x_output = 0000, x_counter=0000, y_output = 0000, y_counter=0000, valid_coordinate = 0, state = 00
# At time                   90ns, x_output = 0000, x_counter=0000, y_output = 0000, y_counter=0000, valid_coordinate = 0, state = 01
# At time                  110ns, x_output = 1000, x_counter=0001, y_output = 0000, y_counter=0000, valid_coordinate = 0, state = 01
# At time                  130ns, x_output = 1000, x_counter=0001, y_output = 0000, y_counter=0000, valid_coordinate = 0, state = 00
# At time                  170ns, x_output = 1000, x_counter=0001, y_output = 0000, y_counter=0000, valid_coordinate = 0, state = 01
# At time                  190ns, x_output = 0100, x_counter=0010, y_output = 0000, y_counter=0000, valid_coordinate = 0, state = 01
# At time                  210ns, x_output = 0100, x_counter=0010, y_output = 0000, y_counter=0000, valid_coordinate = 0, state = 00
# At time                  250ns, x_output = 0100, x_counter=0010, y_output = 0000, y_counter=0000, valid_coordinate = 0, state = 01
# At time                  270ns, x_output = 0010, x_counter=0011, y_output = 0000, y_counter=0000, valid_coordinate = 0, state = 01
# At time                  290ns, x_output = 0010, x_counter=0011, y_output = 0000, y_counter=0000, valid_coordinate = 0, state = 00
# At time                  330ns, x_output = 0010, x_counter=0011, y_output = 0000, y_counter=0000, valid_coordinate = 0, state = 01
# At time                  350ns, x_output = 0001, x_counter=0100, y_output = 0000, y_counter=0000, valid_coordinate = 0, state = 01
# At time                  370ns, x_output = 0001, x_counter=0100, y_output = 0000, y_counter=0000, valid_coordinate = 0, state = 10
# At time                  410ns, x_output = 0001, x_counter=0100, y_output = 0000, y_counter=0001, valid_coordinate = 0, state = 10
# At time                  430ns, x_output = 0001, x_counter=0100, y_output = 0000, y_counter=0010, valid_coordinate = 0, state = 10
# At time                  490ns, x_output = 0001, x_counter=0100, y_output = 1000, y_counter=0011, valid_coordinate = 0, state = 10
# At time                  510ns, x_output = 0001, x_counter=0100, y_output = 1100, y_counter=0100, valid_coordinate = 0, state = 10
# At time                  530ns, x_output = 0001, x_counter=0100, y_output = 1100, y_counter=0100, valid_coordinate = 0, state = 11
# At time                  730ns, x_output = 0001, x_counter=0100, y_output = 1100, y_counter=0100, valid_coordinate = 1, state = 00
# At time                  750ns, x_output = 0001, x_counter=0100, y_output = 1100, y_counter=0100, valid_coordinate = 0, state = 00
vlog -reportprogress 300 -work work D:/altera/13.1/Projects/TermProject/input_handler.v
# Model Technology ModelSim ALTERA vlog 10.1d Compiler 2012.11 Nov  2 2012
# -- Compiling module input_handler
# 
# Top level modules:
# 	input_handler
restart
# Loading work.input_handler
run -all
# At time                    0ns, x_output = xxxx, x_counter=xxxx, y_output = xxxx, y_counter=xxxx, valid_coordinate = x, state = xx
# At time                   10ns, x_output = xxxx, x_counter=xxxx, y_output = xxxx, y_counter=xxxx, valid_coordinate = 0, state = xx
# At time                   20ns, x_output = 0000, x_counter=0000, y_output = 0000, y_counter=0000, valid_coordinate = 0, state = 00
# At time                   90ns, x_output = 0000, x_counter=0000, y_output = 0000, y_counter=0000, valid_coordinate = 0, state = 01
